{
    "type": "object",
    "description": "representing a register entry for an application instance",
    "example": {
        "id": "00000000-0000-0000-0000-000000000000",
        "type": "calldisplay",
        "parameters": "collections[scopelist]=141,142&qrcode=1",
        "userAgent": "Mozilla/5.0 (Windows NT 6.1; rv:60.0) Gecko/20100101 Firefox/60.0",
        "scopeId": 141,
        "startDate": "2016-04-01",
        "lastDate": "2016-04-01",
        "daysActive": 1,
        "requestedChange": {
            "parameters": "collections[scopelist]=140,141,142&qrcode=1&template=clocknrplatz"
        }
    },
    "required": [
        "id",
        "type"
    ],
    "additionalProperties": false,
    "properties": {
        "id": {
            "type": "string",
            "description": "must be a unique identifier"
        },
        "type": {
            "type": "string",
            "description": "one of: ZMS1 ticketprinter, ZMS1 calldisplay, ZMS2 ticketprinter, ZMS2 calldisplay"
        },
        "parameters": {
            "type": "string",
            "description": "a value that represents the application basics"
        },
        "userAgent": {
            "type": "string",
            "description": "client and OS version information"
        },
        "scopeId": {
            "type": "number",
            "description": "location specific id"
        },
        "startDate": {
            "type": ["string", "object"],
            "description": "value representing the datetime (YYYY-MM-DD hh:mm:ss) when the register entry was created"
        },
        "lastDate": {
            "type": ["string", "object"],
            "description": "value representing the last date (YYYY-MM-DD) the client session/cookie has been registered"
        },
        "daysActive": {
            "type": "number",
            "description": "number of days the client is active with the same session/cookie"
        },
        "requestedChange": {
            "type": ["object", "null"],
            "description": "contains an object with attributes to be changed for the application"
        }
    }
}