{
    "type": "object",
    "description": "a concrete check-in-task",
    "example": {
        "id": 22,
        "status": "open",
        "refersTo": "Process",
        "referenceId": 123456,
        "scopeId": 123,
        "checkInTS": 0,
        "scheduledTS": 1447922893,
        "checkInSource": "",
        "checkInDateTime": null,
        "scheduledDateTime": "2015-11-19T09:48:13+01:00",
        "lastChange": "2015-11-19 06:52:25"
    },
    "required": [
        "refersTo",
        "referenceId",
        "scheduledTS"
    ],
    "additionalProperties": false,
    "properties": {
        "id": {
            "type": ["number", "null"],
            "description": "auto increment"
        },
        "status": {
            "type": "string",
            "description": "one of 'open', 'late', 'early', 'arrived', 'noShow' or 'N/A'"
        },
        "refersTo": {
            "type": "string"
        },
        "referenceId": {
            "type": "number",
            "minimum": 1,
            "x-locale": {
                "de_DE": {
                    "pointer": "geplanter Vorgang",
                    "messages": {
                        "minimum": "Der Check-In-Vorgang muss zu einem Vorgang gehören."
                    }
                }
            }
        },
        "scopeId": {
            "type": "number",
            "minimum": 1,
            "x-locale": {
                "de_DE": {
                    "pointer": "Standort",
                    "messages": {
                        "minimum": "Der Check-In-Vorgang wurde ohne einen Standort übergeben"
                    }
                }
            }
        },
        "checkInTS": {
            "type": "number"
        },
        "scheduledTS": {
            "type": "number",
            "minimum": 1,
            "x-locale": {
                "de_DE": {
                    "pointer": "geplanter Termin",
                    "messages": {
                        "minimum": "Der Check-In-Vorgang wurde ohne eine Ziel-Zeit übergeben"
                    }
                }
            }
        },
        "checkInSource": {
            "type": "string",
            "description": "describes the place where the checkin happened, when it happened",
            "enum": [
                "",
                "localApp",
                "manual",
                "online"
            ]
        },
        "checkInDateTime": {
            "type": ["null", "string"]
        },
        "scheduledDateTime": {
            "type": "string"
        },
        "lastChange": {
            "type": "string",
            "description": "timestamp of the creation or last update in the database"
        }
    }
}
