{
  "description": "A contact is a collection of contact informations to find or to contact a natural person or an entity.",
  "type": "object",
  "example": {
    "city": "Schönefeld",
    "country": "Germany",
    "lat": 52.345,
    "lon": 13.456,
    "name": "Flughafen Schönefeld, Landebahn",
    "postalCode": "15831",
    "region": "Brandenburg",
    "street": "Zaunstraße",
    "streetNumber": "1"
  },
  "additionalProperties": false,
  "properties": {
    "city": {
      "default": "",
      "type": "string"
    },
    "country": {
      "default": "",
      "description": "Name of the country or the ISO 3166-1 country code like 'de'.",
      "type": "string"
    },
    "lat": {
      "default": "",
      "description": "Latitute of a geo coordinate as wgs84 or etrs89",
      "type": "number"
    },
    "lon": {
      "default": "",
      "description": "Longitude of a geo coordinate as wgs84 or etrs89",
      "type": "number"
    },
    "name": {
      "default": "",
      "type": "string",
      "maxLength": 200,
      "x-locale": {
        "de_DE": {
          "pointer": "Name",
          "messages": {
            "maxLength": "Für den Namen / Ansprechpartner können höchstens 200 Zeichen eingegeben werden."
          }
        }
      }
    },
    "postalCode": {
      "default": "",
      "type": ["string", "integer"]
    },
    "region": {
      "default": "",
      "type": "string",
      "maxLength": 200,
      "x-locale": {
        "de_DE": {
          "pointer": "Bundesland",
          "messages": {
            "maxLength": "Für das Bundesland wurden mehr als 200 Zeichen eingegeben."
          }
        }
      }
    },
    "street": {
      "default": "",
      "type": "string",
      "maxLength": 200,
      "x-locale": {
        "de_DE": {
          "pointer": "Straße",
          "messages": {
            "maxLength": "Der Straßenname darf nicht länger als 200 Zeichen sein."
          }
        }
      }
    },
    "streetNumber": {
      "default": "",
      "type": "string",
      "maxLength": 20,
      "x-locale": {
        "de_DE": {
          "pointer": "Hausnummer",
          "messages": {
            "maxLength": "Für die Hausnummer wurden mehr als 20 Zeichen eingegeben."
          }
        }
      }
    },
    "email": {
      "type": "string",
      "default": "",
      "pattern": "^[a-zA-Z0-9_\\-\\.]{2,}@[a-zA-Z0-9_\\-\\.]{2,}\\.[a-z]{2,}$|^$",
      "maxLength": 50,
      "x-locale": {
        "de_DE": {
          "pointer": "Kontakt E-Mail",
          "messages": {
            "pattern": "Die E-Mail Adresse muss eine valide E-Mail im Format max@mustermann.de sein",
            "maxLength": "Die E-Mail Adresse kann höchstens 50 Zeichen lang sein."
          }
        }
      }
    },
    "telephone": {
      "default": "",
      "type": "string"
    }
  }
}