{
    "type": "object",
    "description": "Permissions an useraccount can get to grant protected access to the API",
    "example": {
        "remotecall": 0
    },
    "additionalProperties": false,
    "properties": {
        "remotecall": {
            "type": "number",
            "description": "1 if the API client has the right to set a remoteCall."
        }
    }
}
